{
    "5bvWQl7slN": "5bvWQl7slN",
    "Anti Theft Laptop Backpack - Arctic Hunter Waterproof Backpack with USB Charging Port for 15.6'' Laptop, Black": "",
    "Automotive & Motorbike": "",
    "Babies & Toys": "",
    "Best Quality Sound I15 Pods Tws Bluetooth 5.0 Pop-Up Window Touch Control Auto Pairing Wireless": "",
    "Bluetooth 5.0 Pop-Up Window Touch Control Auto Pairing Wireless": "",
    "Boyfriend Jeans Vintage High Waist Jeans For Women Boyfriend Jeans Length Mom Style": "",
    "Brown Lace-Up Glossy Formal Shoes For Men": "",
    "Brown Lace-Up Glossy Formal Shoes For Men (G-917)": "",
    "Casual Embroidered Women Kurti (Dark Green)": "",
    "Demo category 1": "",
    "Electronic Devices": "",
    "Fluid Jeans Denim Regular Fit Faded / Washed Jeans for Boys": "",
    "Gaming": "",
    "Groceries & Pets": "",
    "Health & Beauty": "",
    "Home & Lifestyle": "",
    "Men's Fashion": "",
    "Police Zebra Junior Kids T-Shirt": "",
    "Remember Shoes Brown Lace Up Lifestyle Boots For Men (Yk-412)": "",
    "SAMSUNG GALAXY M21": "",
    "SAMSUNG GALAXY M31": "",
    "Sports & Outdoor": "",
    "Supa 8501G Black Dial Round Analog Watch For Men": "",
    "TV & Home Appliances": "",
    "WIGhqv1qTC": "",
    "Watches & Accessories": "",
    "Women's Fashion": "",
    "aaaaaaaaaaaaaaaaaaaaaaaaaaaaa": "",
    "apple iphone 11 pro max": "",
    "ashish": "ashish",
    "bgkgJhPnHe": "bgkgJhPnHe",
    "c4TQU8GOIm": "",
    "chceck 1": "",
    "color test product": "",
    "hello world": "",
    "next ashish": "",
    "qwertyuiop": "",
    "qwlfkfglk": "",
    "rED6qdQw1F": "",
    "saree": "",
    "sdasdsadasd ascasasdsad": "",
    "sneakers": "",
    "sony 40 inch led tv": "",
    "test": "",
    "test 1": "",
    "test product": "",
    "vdsvdsvavdbdfvd": ""
}